{
  "builders": [
    {
      "accelerator": "kvm",
      "boot_wait": "5s",
      "disk_compression": true,
      "disk_image": true,
      "disk_interface": "virtio",
      "disk_size": "{{user `disk_size`}}",
      "format": "qcow2",
      "headless": "{{user `headless`}}",
      "http_directory": "http",
      "iso_checksum": "{{user `iso_checksum_type`}}:{{user `iso_checksum`}}",
      "iso_url": "base/Fedora-Cloud-Base-28-1.1.x86_64.qcow2",
      "net_device": "virtio-net",
      "output_directory": "{{user `build_dir`}}",
      "qemuargs": [
        [
          "-m",
          "{{user `memory`}}"
        ],
        [
          "-smp",
          "{{user `cpus`}}"
        ],
        [
          "-cdrom",
          "cloud-init/fedora27-config.iso"
        ],
        [
          "-display",
          "{{user `display`}}"
        ]
      ],
      "shutdown_command": "sudo systemctl poweroff",
      "ssh_password": "rvn",
      "ssh_timeout": "{{user `ssh_timeout`}}",
      "ssh_username": "rvn",
      "type": "qemu",
      "vm_name": "{{user `vm_name`}}"
    }
  ],
  "provisioners": [
    {
      "execute_command": "{{.Vars}} sudo '{{.Path}}'",
      "scripts": [
        "scripts/fedora/dnf.sh",
        "scripts/common/rvn.sh",
        "scripts/common/sshd.sh",
        "scripts/fedora/sudoers.sh",
        "scripts/fedora/sources.sh",
        "scripts/fedora/cloud.sh",
        "scripts/fedora/cleanup.sh",
        "scripts/common/minimize.sh"
      ],
      "type": "shell"
    }
  ],
  "variables": {
    "build_dir": "build/fedora/28",
    "compression_level": "6",
    "cpus": "4",
    "disk_size": "20000",
    "display": "gtk",
    "headless": "true",
    "iso_checksum": "d987209719fadaf81b8bff85c5d3590a1d3dac6357e4838fde8357086c49b5b4",
    "iso_checksum_type": "sha256",
    "memory": "4096",
    "mirror": "https://mirror.deterlab.net",
    "ssh_timeout": "60m",
    "vm_name": "fedora-28"
  }
}

